<?xml version="1.0" encoding="utf-8"?>
<!-- Generator: Adobe Illustrator 22.0.0, SVG Export Plug-In . SVG Version: 6.00 Build 0)  -->
<svg version="1.1" id="图层_1" xmlns="http://www.w3.org/2000/svg" xmlns:xlink="http://www.w3.org/1999/xlink" x="0px" y="0px"
	 viewBox="0 0 32 32" style="enable-background:new 0 0 32 32;" xml:space="preserve">
<style type="text/css">
	.st0{fill:#FFFFFF;}
</style>
<title>资源 11</title>
<g id="图层_2_1_">
	<g id="图层_1-2">
		<path class="st0" d="M0,16C0,7.2,7.2,0,16,0s16,7.2,16,16s-7.2,16-16,16S0,24.8,0,16z M28,16c0-6.6-5.4-12-12-12S4,9.4,4,16
			s5.4,12,12,12S28,22.6,28,16z"/>
		<path class="st0" d="M16,13c1.7,0,3,1.3,3,3s-1.3,3-3,3s-3-1.3-3-3S14.3,13,16,13z"/>
		<path class="st0" d="M9,13c1.7,0,3,1.3,3,3s-1.3,3-3,3s-3-1.3-3-3S7.3,13,9,13z"/>
		<path class="st0" d="M23,13c1.7,0,3,1.3,3,3s-1.3,3-3,3s-3-1.3-3-3S21.3,13,23,13z"/>
	</g>
</g>
</svg>
